
*******************************
 ____    ____   ______  _____
|_   \  /   _|.' ___  ||_   _|
  |   \/   | / .'   \_|  | |
  | |\  /| | | |   ____  | |
 _| |_\/_| |_\ `.___]  |_| |_
|_____||_____|`._____.'|_____|

::Spring Boot:: ${spring-boot.formatted-version}

*******************************